2023-10-10 Analyze prefilter experiment qPCR
…
print(raw_data)

# A tibble: 165 × 21
    Well `Well Position` Omit  Sample   Target Task     Reporter Quencher
   <dbl> <chr>           <lgl> <chr>    <chr>  <chr>    <chr>    <chr>   
 1     1 A1              FALSE 1A       Cov2   UNKNOWN  FAM      NFQ-MGB 
 2     2 A2              FALSE 1A       Cov2   UNKNOWN  FAM      NFQ-MGB 
 3     3 A3              FALSE 1A       Cov2   UNKNOWN  FAM      NFQ-MGB 
 4     4 A4              FALSE 10000.0  Cov2   STANDARD FAM      NFQ-MGB 
 5     5 A5              FALSE 10000.0  Cov2   STANDARD FAM      NFQ-MGB 
 6     6 A6              FALSE 10000.0  Cov2   STANDARD FAM      NFQ-MGB 
 7     7 A7              FALSE 1A       PMMV   UNKNOWN  FAM      NFQ-MGB 
 8     8 A8              FALSE 1A       PMMV   UNKNOWN  FAM      NFQ-MGB 
 9     9 A9              FALSE 1A       PMMV   UNKNOWN  FAM      NFQ-MGB 
10    10 A10             FALSE 800000.0 PMMV   STANDARD FAM      NFQ-MGB 
# ℹ 155 more rows
# ℹ 13 more variables: `Amp Status` <chr>, `Amp Score` <dbl>,
#   `Curve Quality` <lgl>, `Result Quality Issues` <lgl>, Cq <dbl>,
#   `Cq Confidence` <dbl>, `Cq Mean` <dbl>, `Cq SD` <dbl>,
#   `Auto Threshold` <lgl>, Threshold <dbl>, `Auto Baseline` <lgl>,
#   `Baseline Start` <dbl>, `Baseline End` <dbl>
…
