2023-09-13 PMMoV qPCR Analysis
…
[1] "/Users/dan/airport/[2023-09-13] PMMoV and Multiplex qPCR/qpcr/Ari PMMoV_Results_20230925_115306.csv"

Warning: One or more parsing issues, call `problems()` on your data frame for details,
e.g.:
  dat <- vroom(...)
  problems(dat)

print(raw_data)

# A tibble: 63 × 21
    Well `Well Position` Omit  Sample Target Task    Reporter Quencher
   <dbl> <chr>           <lgl> <chr>  <chr>  <chr>   <chr>    <chr>   
 1     1 A1              FALSE 1      PPMoV  UNKNOWN VIC      NFQ-MGB 
 2     2 A2              FALSE 1      PPMoV  UNKNOWN VIC      NFQ-MGB 
 3     3 A3              FALSE 1      PPMoV  UNKNOWN VIC      NFQ-MGB 
 4     5 A5              FALSE 1      N2     UNKNOWN FAM      NFQ-MGB 
 5     6 A6              FALSE 1      N2     UNKNOWN FAM      NFQ-MGB 
 6     8 A8              FALSE NTC    N2     UNKNOWN FAM      NFQ-MGB 
 7    10 A10             FALSE 1      N2     UNKNOWN FAM      NFQ-MGB 
 8    10 A10             FALSE 1      PPMoV  UNKNOWN VIC      NFQ-MGB 
 9    11 A11             FALSE 1      N2     UNKNOWN FAM      NFQ-MGB 
10    11 A11             FALSE 1      PPMoV  UNKNOWN VIC      NFQ-MGB 
# ℹ 53 more rows
# ℹ 13 more variables: `Amp Status` <chr>, `Amp Score` <dbl>,
#   `Curve Quality` <lgl>, `Result Quality Issues` <lgl>, Cq <dbl>,
#   `Cq Confidence` <dbl>, `Cq Mean` <dbl>, `Cq SD` <dbl>,
#   `Auto Threshold` <lgl>, Threshold <dbl>, `Auto Baseline` <lgl>,
#   `Baseline Start` <dbl>, `Baseline End` <dbl>
…
Warning: The following named parsers don't match the column names: Cq

# A tibble: 2,520 × 26
    Well `Well Position` `Cycle Number` Target    Rn     dRn Sample Omit.x
   <dbl> <chr>                    <dbl> <chr>  <dbl>   <dbl> <chr>  <lgl> 
 1     1 A1                           1 PPMoV   13.5 -1.41   1      FALSE 
 2     1 A1                           2 PPMoV   13.8 -1.23   1      FALSE 
 3     1 A1                           3 PPMoV   14.4 -0.752  1      FALSE 
 4     1 A1                           4 PPMoV   14.8 -0.474  1      FALSE 
 5     1 A1                           5 PPMoV   15.2 -0.290  1      FALSE 
 6     1 A1                           6 PPMoV   15.5 -0.0864 1      FALSE 
 7     1 A1                           7 PPMoV   15.8  0.0333 1      FALSE 
 8     1 A1                           8 PPMoV   16.0  0.138  1      FALSE 
 9     1 A1                           9 PPMoV   16.3  0.272  1      FALSE 
10     1 A1                          10 PPMoV   16.5  0.302  1      FALSE 
# ℹ 2,510 more rows
# ℹ 18 more variables: Omit.y <lgl>, Task <chr>, Reporter <chr>,
#   Quencher <chr>, `Amp Status` <chr>, `Amp Score` <dbl>,
#   `Curve Quality` <lgl>, `Result Quality Issues` <lgl>, Cq <dbl>,
#   `Cq Confidence` <dbl>, `Cq Mean` <dbl>, `Cq SD` <dbl>,
#   `Auto Threshold` <lgl>, Threshold <dbl>, `Auto Baseline` <lgl>,
#   `Baseline Start` <dbl>, `Baseline End` <dbl>, n_multiplex <int>
…
