TK
…
amp_data |>
  filter(Task == "UNKNOWN" & is.na(Cq)) |>
  print() |>
  ggplot(aes(x = `Cycle Number`, y = dRn)) +
  geom_line(mapping = aes(
    color = Task,
    group = Well,
  )) +
  geom_line(mapping = aes(
    x = `Cycle Number`,
    y = Threshold
  ), color = "Grey") +
  scale_y_log10(limits = c(1e-3, 1e1))

# A tibble: 40 × 39
    Well `Well Position` `Cycle Number` Target    Rn      dRn Sample Omit  plate
   <dbl> <chr>                    <dbl> <chr>  <dbl>    <dbl> <chr>  <lgl> <chr>
 1    90 H6                           1 PMMoV  0.350 -0.0310  4-2    FALSE 2023…
 2    90 H6                           2 PMMoV  0.353 -0.0290  4-2    FALSE 2023…
 3    90 H6                           3 PMMoV  0.363 -0.0211  4-2    FALSE 2023…
 4    90 H6                           4 PMMoV  0.371 -0.0143  4-2    FALSE 2023…
 5    90 H6                           5 PMMoV  0.378 -0.00919 4-2    FALSE 2023…
 6    90 H6                           6 PMMoV  0.383 -0.00520 4-2    FALSE 2023…
 7    90 H6                           7 PMMoV  0.389 -0.00109 4-2    FALSE 2023…
 8    90 H6                           8 PMMoV  0.393  0.00154 4-2    FALSE 2023…
 9    90 H6                           9 PMMoV  0.395  0.00290 4-2    FALSE 2023…
10    90 H6                          10 PMMoV  0.398  0.00399 4-2    FALSE 2023…
# ℹ 30 more rows
# ℹ 30 more variables: well_row <chr>, well_col <chr>, Task <chr>,
#   Reporter <chr>, Quencher <chr>, `Amp Status` <chr>, `Amp Score` <dbl>,
#   `Curve Quality` <lgl>, `Result Quality Issues` <lgl>, Cq <dbl>,
#   `Cq Confidence` <dbl>, `Cq Mean` <dbl>, `Cq SD` <dbl>,
#   `Auto Threshold` <lgl>, Threshold <dbl>, `Auto Baseline` <lgl>,
#   `Baseline Start` <dbl>, `Baseline End` <dbl>, TreatmentGroup <chr>, …
…
