2023-10-11 Analyze qPCR standard curves
…
[1] "/Users/dan/airport/[2023-10-05] qPCR standard curve troubleshooting/qpcr/2023-10-05_StdCurve_CalTest_Results_20231012_125325.csv"

Warning: One or more parsing issues, call `problems()` on your data frame for details,
e.g.:
  dat <- vroom(...)
  problems(dat)

print(raw_data)

# A tibble: 69 × 21
    Well `Well Position` Omit  Sample Target Task     Reporter Quencher
   <dbl> <chr>           <lgl>  <dbl> <chr>  <chr>    <chr>    <chr>   
 1     1 A1              FALSE 100000 Cov2   STANDARD FAM      NFQ-MGB 
 2     2 A2              FALSE 100000 Cov2   STANDARD FAM      NFQ-MGB 
 3     3 A3              FALSE 100000 Cov2   STANDARD FAM      NFQ-MGB 
 4     5 A5              FALSE 100000 Noro   STANDARD FAM      NFQ-MGB 
 5     6 A6              FALSE 100000 Noro   STANDARD FAM      NFQ-MGB 
 6     7 A7              FALSE 100000 Noro   STANDARD FAM      NFQ-MGB 
 7     9 A9              FALSE 800000 PMMoV  STANDARD VIC      NFQ-MGB 
 8    10 A10             FALSE 800000 PMMoV  STANDARD VIC      NFQ-MGB 
 9    11 A11             FALSE 800000 PMMoV  STANDARD VIC      NFQ-MGB 
10    13 B1              FALSE  10000 Cov2   STANDARD FAM      NFQ-MGB 
# ℹ 59 more rows
# ℹ 13 more variables: `Amp Status` <chr>, `Amp Score` <dbl>,
#   `Curve Quality` <lgl>, `Result Quality Issues` <lgl>, Cq <dbl>,
#   `Cq Confidence` <dbl>, `Cq Mean` <dbl>, `Cq SD` <dbl>,
#   `Auto Threshold` <lgl>, Threshold <dbl>, `Auto Baseline` <lgl>,
#   `Baseline Start` <dbl>, `Baseline End` <dbl>
…
