2023-07-18 Extraction Experiment 1 qPCR Analysis
…
print(raw_data)

# A tibble: 333 × 21
    Well `Well Position` Omit  Sample  Target Task    Reporter Quencher
   <dbl> <chr>           <lgl> <chr>   <chr>  <chr>   <chr>    <chr>   
 1     1 A1              FALSE 1_ZR_A  Cov2   UNKNOWN FAM      NFQ-MGB 
 2     2 A2              FALSE 1_ZR_B  Cov2   UNKNOWN FAM      NFQ-MGB 
 3     3 A3              FALSE 1_ZR_C  Cov2   UNKNOWN FAM      NFQ-MGB 
 4     4 A4              FALSE 2_ZDR_A Cov2   UNKNOWN FAM      NFQ-MGB 
 5     5 A5              FALSE 2_ZDR_B Cov2   UNKNOWN FAM      NFQ-MGB 
 6     6 A6              FALSE 2_ZDR_C Cov2   UNKNOWN FAM      NFQ-MGB 
 7     7 A7              FALSE 3_IP_A  Cov2   UNKNOWN FAM      NFQ-MGB 
 8     8 A8              FALSE 3_IP_B  Cov2   UNKNOWN FAM      NFQ-MGB 
 9     9 A9              FALSE 3_IP_C  Cov2   UNKNOWN FAM      NFQ-MGB 
10    10 A10             FALSE 4_NV_A  Cov2   UNKNOWN FAM      NFQ-MGB 
# ℹ 323 more rows
# ℹ 13 more variables: `Amp Status` <chr>, `Amp Score` <dbl>,
#   `Curve Quality` <lgl>, `Result Quality Issues` <lgl>, Cq <dbl>,
#   `Cq Confidence` <dbl>, `Cq Mean` <dbl>, `Cq SD` <dbl>,
#   `Auto Threshold` <lgl>, Threshold <dbl>, `Auto Baseline` <lgl>,
#   `Baseline Start` <dbl>, `Baseline End` <dbl>
…
