2023-09-13 Extraction Experiment 2 qPCR Analysis
…
print(raw_data)

# A tibble: 369 × 21
    Well `Well Position` Omit  Sample Target Task     Reporter Quencher
   <dbl> <chr>           <lgl> <chr>  <chr>  <chr>    <chr>    <chr>   
 1     1 A1              FALSE 1A     Cov2   UNKNOWN  FAM      NFQ-MGB 
 2     2 A2              FALSE 1A     Cov2   UNKNOWN  FAM      NFQ-MGB 
 3     3 A3              FALSE 1A     Cov2   UNKNOWN  FAM      NFQ-MGB 
 4     4 A4              FALSE 3C     Cov2   UNKNOWN  FAM      NFQ-MGB 
 5     5 A5              FALSE 3C     Cov2   UNKNOWN  FAM      NFQ-MGB 
 6     6 A6              FALSE 3C     Cov2   UNKNOWN  FAM      NFQ-MGB 
 7     7 A7              FALSE 6B     Cov2   UNKNOWN  FAM      NFQ-MGB 
 8     8 A8              FALSE 6B     Cov2   UNKNOWN  FAM      NFQ-MGB 
 9     9 A9              FALSE 6B     Cov2   UNKNOWN  FAM      NFQ-MGB 
10    10 A10             FALSE 1000.0 Cov2   STANDARD FAM      NFQ-MGB 
# ℹ 359 more rows
# ℹ 13 more variables: `Amp Status` <chr>, `Amp Score` <dbl>,
#   `Curve Quality` <lgl>, `Result Quality Issues` <lgl>, Cq <dbl>,
#   `Cq Confidence` <dbl>, `Cq Mean` <dbl>, `Cq SD` <dbl>,
#   `Auto Threshold` <lgl>, Threshold <dbl>, `Auto Baseline` <lgl>,
#   `Baseline Start` <dbl>, `Baseline End` <dbl>
…
These match the Design & Analysis software.

Dilution series

tidy_data |>
  filter(Task == "UNKNOWN", dilution > 1) |>
  count(Target, Extraction_kit, dilution)

# A tibble: 21 × 4
   Target Extraction_kit                    dilution     n
   <chr>  <chr>                                <int> <int>
 1 Cov2   Invitrogen PureLink RNA                 10     2
 2 Cov2   Invitrogen PureLink RNA                100     2
 3 Cov2   QIAamp Viral RNA mini kit               10     2
 4 Cov2   QIAamp Viral RNA mini kit              100     2
 5 Cov2   Qiagen AllPrep PowerViral DNA/RNA       10     2
 6 Cov2   Qiagen AllPrep PowerViral DNA/RNA      100     2
 7 CrA    Invitrogen PureLink RNA                 10     2
 8 CrA    Invitrogen PureLink RNA                100     2
 9 CrA    QIAamp Viral RNA mini kit               10     2
10 CrA    QIAamp Viral RNA mini kit              100     2
# ℹ 11 more rows
…
Warning: The following named parsers don't match the column names: Cq
The following named parsers don't match the column names: Cq
The following named parsers don't match the column names: Cq
The following named parsers don't match the column names: Cq

Warning: There was 1 warning in `mutate()`.
ℹ In argument: `quantity = as.double(Sample)`.
Caused by warning:
! NAs introduced by coercion

print(amp_data)

# A tibble: 14,760 × 20
    Well `Well Position` `Cycle Number` Target    Rn      dRn Sample Omit 
   <dbl> <chr>                    <dbl> <chr>  <dbl>    <dbl> <chr>  <lgl>
 1     1 A1                           1 Cov2   0.877  0.0311  1A     FALSE
 2     1 A1                           2 Cov2   0.870  0.0262  1A     FALSE
 3     1 A1                           3 Cov2   0.856  0.0145  1A     FALSE
 4     1 A1                           4 Cov2   0.848  0.00816 1A     FALSE
 5     1 A1                           5 Cov2   0.844  0.00638 1A     FALSE
 6     1 A1                           6 Cov2   0.838  0.00299 1A     FALSE
 7     1 A1                           7 Cov2   0.832 -0.00128 1A     FALSE
 8     1 A1                           8 Cov2   0.829 -0.00202 1A     FALSE
 9     1 A1                           9 Cov2   0.824 -0.00480 1A     FALSE
10     1 A1                          10 Cov2   0.821 -0.00546 1A     FALSE
# ℹ 14,750 more rows
# ℹ 12 more variables: replicate <chr>, Sample_ID <chr>, dilution <int>,
#   quantity <dbl>, Extraction_kit <chr>, Short_kit <chr>, `Kit Batch` <dbl>,
#   Elution_volume <dbl>, Elution_format <chr>, Brand <chr>, NA_Target <chr>,
#   FP_sampleID <lgl>
…
